{
  "project_info": {
    "project_number": "401254905819",
    "firebase_url": "https://sls-trucklocation.firebaseio.com",
    "project_id": "sls-trucklocation",
    "storage_bucket": "sls-trucklocation.appspot.com"
  },
  "client": [
    {
      "client_info": {
        "mobilesdk_app_id": "1:401254905819:android:a439262abd8640953e59fe",
        "android_client_info": {
          "package_name": "com.geoloc"
        }
      },
      "oauth_client": [
        {
          "client_id": "401254905819-h4o1926uh1i0qt89eacm4mkgv3rskkee.apps.googleusercontent.com",
          "client_type": 3
        }
      ],
      "api_key": [
        {
          "current_key": "AIzaSyDrXgE2RhHzAoB7zL0vIYzlXVeZzWir_38"
        }
      ],
      "services": {
        "appinvite_service": {
          "other_platform_oauth_client": [
            {
              "client_id": "401254905819-h4o1926uh1i0qt89eacm4mkgv3rskkee.apps.googleusercontent.com",
              "client_type": 3
            }
          ]
        }
      }
    }
  ],
  "configuration_version": "1"
}